{
  "images" : [
    {
      "idiom" : "universal",
      "filename" : "photo_2019-11-22 15.05.08.jpeg",
      "scale" : "1x"
    },
    {
      "idiom" : "universal",
      "scale" : "2x"
    },
    {
      "idiom" : "universal",
      "scale" : "3x"
    }
  ],
  "info" : {
    "version" : 1,
    "author" : "xcode"
  }
}